a) O programa exame é executado oito vezes e o alunos nenhuma vez. (caso a criaçao dos processos nao falhe)
b) 

PAi
|
|
|--------------\ fork 1
|              |
|-------\      |-------------\   fork 2
|       |      |             |
|--\    |--\   |--\          |--\
|  |    |  |   |  |          |  |
~~~~~~~~~~~~~~~~~~~~~~~~~~~~~~~~~~~ FOR iteracao 0
|  |    |  |   |  |          |  |
E  E    E  E   E  E          E  E   executar exames
      TODOS OS PROCESSO TERMINAM!!!!

Todos os processos termina apos executar exames. 

